<?xml version="1.0" encoding="UTF-8" standalone="no"?>
<svg
   xmlns:dc="http://purl.org/dc/elements/1.1/"
   xmlns:cc="http://creativecommons.org/ns#"
   xmlns:rdf="http://www.w3.org/1999/02/22-rdf-syntax-ns#"
   xmlns:svg="http://www.w3.org/2000/svg"
   xmlns="http://www.w3.org/2000/svg"
   xmlns:sodipodi="http://sodipodi.sourceforge.net/DTD/sodipodi-0.dtd"
   xmlns:inkscape="http://www.inkscape.org/namespaces/inkscape"
   version="1.1"
   x="0px"
   y="0px"
   viewBox="0 0 76 76"
   id="svg10"
   sodipodi:docname="noun_video waiting_505175.svg"
   width="76"
   height="76"
   inkscape:version="0.92.3 (2405546, 2018-03-11)">
  <metadata
     id="metadata16">
    <rdf:RDF>
      <cc:Work
         rdf:about="">
        <dc:format>image/svg+xml</dc:format>
        <dc:type
           rdf:resource="http://purl.org/dc/dcmitype/StillImage" />
        <dc:title></dc:title>
      </cc:Work>
    </rdf:RDF>
  </metadata>
  <defs
     id="defs14">
    <style
       id="style2">
      .cls-3 {
        fill: #211f20;
      }

      .cls-4 {
        fill: #737373;
      }

      .cls-5 {
        fill: #f1680d;
      }

      .cls-6 {
        fill: rgba(255, 255, 255, 0);
      }
    </style>
    <style
       id="style2-3">
      .cls-3 {
        fill: #211f20;
      }

      .cls-4 {
        fill: #737373;
      }

      .cls-5 {
        fill: #f1680d;
      }

      .cls-6 {
        fill: rgba(255, 255, 255, 0);
      }
    </style>
  </defs>
  <sodipodi:namedview
     pagecolor="#ffffff"
     bordercolor="#666666"
     borderopacity="1"
     objecttolerance="10"
     gridtolerance="10"
     guidetolerance="10"
     inkscape:pageopacity="0"
     inkscape:pageshadow="2"
     inkscape:window-width="1920"
     inkscape:window-height="1017"
     id="namedview12"
     showgrid="false"
     inkscape:snap-bbox="true"
     inkscape:bbox-paths="true"
     inkscape:bbox-nodes="true"
     inkscape:snap-bbox-midpoints="true"
     inkscape:snap-bbox-edge-midpoints="true"
     inkscape:snap-intersection-paths="true"
     inkscape:object-paths="true"
     inkscape:snap-smooth-nodes="true"
     inkscape:snap-midpoints="true"
     inkscape:snap-object-midpoints="true"
     inkscape:snap-center="true"
     inkscape:snap-text-baseline="true"
     inkscape:snap-page="true"
     fit-margin-top="0"
     fit-margin-left="0"
     fit-margin-right="0"
     fit-margin-bottom="0"
     inkscape:zoom="10.680141"
     inkscape:cx="36.49402"
     inkscape:cy="47.917316"
     inkscape:window-x="1072"
     inkscape:window-y="612"
     inkscape:window-maximized="1"
     inkscape:current-layer="g4" />
  <g
     transform="translate(-6,-946.36218)"
     id="g4">
    <path
       style="color:#000000;display:inline;overflow:visible;visibility:visible;fill:#000000;stroke:none;enable-background:accumulate"
       d="m 21,958.36218 c -8.31,0 -15,6.69 -15,15 v 22 c 0,8.31002 6.69,15.00002 15,15.00002 h 46 c 8.31,0 15,-6.69 15,-15.00002 v -22 c 0,-8.31 -6.69,-15 -15,-15 z"
       id="path2"
       inkscape:connector-curvature="0"
       sodipodi:nodetypes="sssssssss" />
    <g
       transform="matrix(1.0312182,0,0,1.0312182,-2847.3799,1922.3962)"
       class="cls-1"
       data-name="Artboard – 1"
       id="Artboard_1">
      <g
         transform="translate(2759,-975)"
         data-name="Symbol 3 – 1"
         id="Symbol_3_1">
        <g
           transform="translate(0,2.333)"
           data-name="Group 44"
           id="Group_44" />
      </g>
    </g>
    <g
       transform="translate(-2842.3136,1877.9893)"
       class="cls-1"
       data-name="Artboard – 1"
       id="Artboard_1-6">
      <g
         transform="translate(2759,-975)"
         data-name="Symbol 3 – 1"
         id="Symbol_3_1-8">
        <g
           transform="translate(0,2.333)"
           data-name="Group 44"
           id="Group_44-8">
          <path
             style="fill:#737373;stroke-width:1.5112555"
             inkscape:connector-curvature="0"
             d="M 118.34114,79.039438 V 95.16 l 12.09005,-8.059525"
             class="cls-4"
             data-name="Path 5"
             id="Path_5" />
          <path
             style="fill:#f1680d;stroke-width:1.5112555"
             inkscape:connector-curvature="0"
             d="m 130.43119,70.978401 v 16.120562 l 12.09004,-8.059525"
             class="cls-5"
             data-name="Path 6"
             id="Path_6" />
          <path
             style="fill:#e6e6e6;stroke-width:1.5112555"
             inkscape:connector-curvature="0"
             d="m 118.34114,62.91983 v 16.120562 l 12.09005,-8.059525"
             class="cls-4"
             data-name="Path 5"
             id="Path_5-1" />
        </g>
      </g>
    </g>
  </g>
</svg>
