<svg version="1.1" viewBox="0 0 130 130" xmlns="http://www.w3.org/2000/svg">
 <g id="glibre" transform="translate(440,-470)">
  <rect x="-440" y="470" width="130" height="130" ry="65" fill="#fff"/>
  <path d="m-366.53 475.29a10 10 0 0 1-6.5 4.5117 10 10 0 0 1-10.443-4.5078l-8.4648 5.291a20 20 0 0 0 20.877 9.0215 20 20 0 0 0 13.014-9.0156z"/>
  <path d="m-374.79 495a40 40 0 0 0-22.623 6.8652 40 40 0 0 0-14.49 48.578 40 40 0 0 0 44.775 23.773 40 40 0 0 0 20.393-10.947l11.73 11.73v-40h-40l14.135 14.135a20 20 0 0 1-10.197 5.4746 20 20 0 0 1-22.387-11.887 20 20 0 0 1 7.2461-24.289 20 20 0 0 1 25.24 2.3203l14.037-14.248a40 40 0 0 0-27.859-11.506z"/>
 </g>
</svg>
